{
    "properties": [], 
    "externalReferences": [], 
    "innerClasses": [], 
    "interfaces": [], 
    "constructors": [], 
    "namespace": null, 
    "name": "AFKLM_SCS_InboundFacebookHandlerImpl", 
    "tableDeclaration": {
        "type": "AFKLM_SCS_InboundFacebookHandlerImpl", 
        "modifiers": [
            "virtual", 
            "global"
        ], 
        "references": [], 
        "location": {
            "column": 22, 
            "line": 1
        }, 
        "name": "AFKLM_SCS_InboundFacebookHandlerImpl"
    }, 
    "key": "01p200000026Z0fAAE", 
    "variables": [
        {
            "type": "SocialPost", 
            "modifiers": [], 
            "references": [], 
            "location": {
                "column": 42, 
                "line": 11
            }, 
            "name": "post"
        }, 
        {
            "type": "AFKLM_SocialCustomerService__c", 
            "modifiers": [], 
            "references": [], 
            "location": {
                "column": 37, 
                "line": 13
            }, 
            "name": "custSettings"
        }, 
        {
            "type": "Set", 
            "modifiers": [], 
            "references": [], 
            "location": {
                "column": 18, 
                "line": 15
            }, 
            "name": "handles"
        }, 
        {
            "type": "SocialPost", 
            "modifiers": [], 
            "references": [], 
            "location": {
                "column": 48, 
                "line": 37
            }, 
            "name": "post"
        }, 
        {
            "type": "LIST", 
            "modifiers": [], 
            "references": [], 
            "location": {
                "column": 24, 
                "line": 38
            }, 
            "name": "fi"
        }, 
        {
            "type": "SocialPost", 
            "modifiers": [], 
            "references": [], 
            "location": {
                "column": 44, 
                "line": 59
            }, 
            "name": "post"
        }, 
        {
            "type": "Case", 
            "modifiers": [], 
            "references": [], 
            "location": {
                "column": 14, 
                "line": 60
            }, 
            "name": "newCase"
        }, 
        {
            "type": "AFKLM_SCS_ControllerHelper", 
            "modifiers": [], 
            "references": [], 
            "location": {
                "column": 40, 
                "line": 63
            }, 
            "name": "helper"
        }, 
        {
            "type": "Map", 
            "modifiers": [], 
            "references": [], 
            "location": {
                "column": 37, 
                "line": 65
            }, 
            "name": "postMap"
        }, 
        {
            "type": "SocialPersona", 
            "modifiers": [], 
            "references": [], 
            "location": {
                "column": 57, 
                "line": 75
            }, 
            "name": "persona"
        }, 
        {
            "type": "SocialPost", 
            "modifiers": [], 
            "references": [], 
            "location": {
                "column": 78, 
                "line": 85
            }, 
            "name": "post"
        }, 
        {
            "type": "SocialPersona", 
            "modifiers": [], 
            "references": [], 
            "location": {
                "column": 71, 
                "line": 86
            }, 
            "name": "persona"
        }, 
        {
            "type": "Map", 
            "modifiers": [], 
            "references": [], 
            "location": {
                "column": 77, 
                "line": 87
            }, 
            "name": "rawData"
        }, 
        {
            "type": "InboundSocialPostResult", 
            "modifiers": [], 
            "references": [], 
            "location": {
                "column": 40, 
                "line": 88
            }, 
            "name": "facebookResult"
        }, 
        {
            "type": "String", 
            "modifiers": [], 
            "references": [], 
            "location": {
                "column": 16, 
                "line": 108
            }, 
            "name": "personaExternalIdWithPrefix"
        }, 
        {
            "type": "LIST", 
            "modifiers": [], 
            "references": [], 
            "location": {
                "column": 23, 
                "line": 110
            }, 
            "name": "facebookWithPersonAccount"
        }, 
        {
            "type": "SocialPost", 
            "modifiers": [], 
            "references": [], 
            "location": {
                "column": 44, 
                "line": 172
            }, 
            "name": "post"
        }, 
        {
            "type": "SocialPersona", 
            "modifiers": [], 
            "references": [], 
            "location": {
                "column": 64, 
                "line": 172
            }, 
            "name": "persona"
        }, 
        {
            "type": "Map", 
            "modifiers": [], 
            "references": [], 
            "location": {
                "column": 93, 
                "line": 172
            }, 
            "name": "rawData"
        }, 
        {
            "type": "SocialPost", 
            "modifiers": [], 
            "references": [], 
            "location": {
                "column": 20, 
                "line": 173
            }, 
            "name": "replyToPost"
        }, 
        {
            "type": "LIST", 
            "modifiers": [], 
            "references": [], 
            "location": {
                "column": 26, 
                "line": 174
            }, 
            "name": "recordTypeIds"
        }, 
        {
            "type": "LIST", 
            "modifiers": [], 
            "references": [], 
            "location": {
                "column": 32, 
                "line": 184
            }, 
            "name": "cs"
        }, 
        {
            "type": "String", 
            "modifiers": [], 
            "references": [], 
            "location": {
                "column": 20, 
                "line": 207
            }, 
            "name": "personaPrefixFBId"
        }, 
        {
            "type": "LIST", 
            "modifiers": [], 
            "references": [], 
            "location": {
                "column": 27, 
                "line": 209
            }, 
            "name": "acc"
        }, 
        {
            "type": "LIST", 
            "modifiers": [], 
            "references": [], 
            "location": {
                "column": 28, 
                "line": 211
            }, 
            "name": "cs"
        }, 
        {
            "type": "Case", 
            "modifiers": [], 
            "references": [], 
            "location": {
                "column": 34, 
                "line": 238
            }, 
            "name": "parentCase"
        }, 
        {
            "type": "SocialPost", 
            "modifiers": [], 
            "references": [], 
            "location": {
                "column": 41, 
                "line": 249
            }, 
            "name": "post"
        }, 
        {
            "type": "Map", 
            "modifiers": [], 
            "references": [], 
            "location": {
                "column": 67, 
                "line": 249
            }, 
            "name": "rawData"
        }, 
        {
            "type": "String", 
            "modifiers": [], 
            "references": [], 
            "location": {
                "column": 16, 
                "line": 250
            }, 
            "name": "replyToId"
        }, 
        {
            "type": "LIST", 
            "modifiers": [], 
            "references": [], 
            "location": {
                "column": 26, 
                "line": 254
            }, 
            "name": "postList"
        }, 
        {
            "type": "SocialPersona", 
            "modifiers": [], 
            "references": [], 
            "location": {
                "column": 46, 
                "line": 268
            }, 
            "name": "persona"
        }, 
        {
            "type": "LIST", 
            "modifiers": [], 
            "references": [], 
            "location": {
                "column": 23, 
                "line": 275
            }, 
            "name": "accountList"
        }
    ], 
    "id": "01p200000026Z0fAAE", 
    "methods": [
        {
            "modifiers": [
                "virtual", 
                "global"
            ], 
            "name": "getMaxNumberOfDaysClosedToReopenCase", 
            "parameters": [], 
            "visibility": "GLOBAL", 
            "references": [], 
            "location": {
                "column": 28, 
                "line": 3
            }, 
            "returnType": "Integer", 
            "type": null
        }, 
        {
            "modifiers": [
                "public"
            ], 
            "name": "checkCampaign", 
            "parameters": [
                {
                    "type": "SocialPost", 
                    "name": "post"
                }
            ], 
            "visibility": "PUBLIC", 
            "references": [], 
            "location": {
                "column": 17, 
                "line": 11
            }, 
            "returnType": "void", 
            "type": null
        }, 
        {
            "modifiers": [
                "private"
            ], 
            "name": "deleteLastCaseFeed", 
            "parameters": [
                {
                    "type": "SocialPost", 
                    "name": "post"
                }
            ], 
            "visibility": "PRIVATE", 
            "references": [], 
            "location": {
                "column": 18, 
                "line": 37
            }, 
            "returnType": "void", 
            "type": null
        }, 
        {
            "modifiers": [
                "virtual", 
                "global"
            ], 
            "name": "usePersonAccount", 
            "parameters": [], 
            "visibility": "GLOBAL", 
            "references": [], 
            "location": {
                "column": 28, 
                "line": 46
            }, 
            "returnType": "Boolean", 
            "type": null
        }, 
        {
            "modifiers": [
                "virtual", 
                "global"
            ], 
            "name": "getDefaultAccountId", 
            "parameters": [], 
            "visibility": "GLOBAL", 
            "references": [], 
            "location": {
                "column": 27, 
                "line": 50
            }, 
            "returnType": "String", 
            "type": null
        }, 
        {
            "modifiers": [
                "private"
            ], 
            "name": "autoCreateCase", 
            "parameters": [
                {
                    "type": "SocialPost", 
                    "name": "post"
                }
            ], 
            "visibility": "PRIVATE", 
            "references": [], 
            "location": {
                "column": 18, 
                "line": 59
            }, 
            "returnType": "void", 
            "type": null
        }, 
        {
            "modifiers": [
                "private"
            ], 
            "name": "handleNotCorrectPersonas", 
            "parameters": [
                {
                    "type": "SocialPersona", 
                    "name": "persona"
                }
            ], 
            "visibility": "PRIVATE", 
            "references": [], 
            "location": {
                "column": 18, 
                "line": 75
            }, 
            "returnType": "void", 
            "type": null
        }, 
        {
            "modifiers": [
                "global"
            ], 
            "name": "handleInboundSocialPost", 
            "parameters": [
                {
                    "type": "SocialPost", 
                    "name": "post"
                }, 
                {
                    "type": "SocialPersona", 
                    "name": "persona"
                }, 
                {
                    "type": "Map", 
                    "name": "rawData"
                }
            ], 
            "visibility": "GLOBAL", 
            "references": [], 
            "location": {
                "column": 43, 
                "line": 85
            }, 
            "returnType": "InboundSocialPostResult", 
            "type": null
        }, 
        {
            "modifiers": [
                "private"
            ], 
            "name": "findParentCase", 
            "parameters": [
                {
                    "type": "SocialPost", 
                    "name": "post"
                }, 
                {
                    "type": "SocialPersona", 
                    "name": "persona"
                }, 
                {
                    "type": "Map", 
                    "name": "rawData"
                }
            ], 
            "visibility": "PRIVATE", 
            "references": [], 
            "location": {
                "column": 18, 
                "line": 172
            }, 
            "returnType": "Case", 
            "type": null
        }, 
        {
            "modifiers": [
                "private"
            ], 
            "name": "reopenCase", 
            "parameters": [
                {
                    "type": "Case", 
                    "name": "parentCase"
                }
            ], 
            "visibility": "PRIVATE", 
            "references": [], 
            "location": {
                "column": 18, 
                "line": 238
            }, 
            "returnType": "void", 
            "type": null
        }, 
        {
            "modifiers": [
                "private"
            ], 
            "name": "findReplyTo", 
            "parameters": [
                {
                    "type": "SocialPost", 
                    "name": "post"
                }, 
                {
                    "type": "Map", 
                    "name": "rawData"
                }
            ], 
            "visibility": "PRIVATE", 
            "references": [], 
            "location": {
                "column": 18, 
                "line": 249
            }, 
            "returnType": "void", 
            "type": null
        }, 
        {
            "modifiers": [
                "private"
            ], 
            "name": "createPersona", 
            "parameters": [
                {
                    "type": "SocialPersona", 
                    "name": "persona"
                }
            ], 
            "visibility": "PRIVATE", 
            "references": [], 
            "location": {
                "column": 18, 
                "line": 268
            }, 
            "returnType": "void", 
            "type": null
        }
    ]
}